^D:\SEM 4\2019-HS2-COS30031-GAMESPROGRAMMING-H1\COS30031-101903197\03 - SPIKE - GRIDWORLD\GRIDWORLDPT1\GRIDWORLDPT1\PCH.CPP
D:\SEM 4\2019-HS2-COS30031-GAMESPROGRAMMING-H1\COS30031-101903197\03 - SPIKE - GRIDWORLD\GRIDWORLDPT1\GRIDWORLDPT1\DEBUG\GRIDWORLDPT1.PCH.CODEANALYSIS
D:\SEM 4\2019-HS2-COS30031-GAMESPROGRAMMING-H1\COS30031-101903197\03 - SPIKE - GRIDWORLD\GRIDWORLDPT1\GRIDWORLDPT1\DEBUG\VC141.PDB
D:\SEM 4\2019-HS2-COS30031-GAMESPROGRAMMING-H1\COS30031-101903197\03 - SPIKE - GRIDWORLD\GRIDWORLDPT1\GRIDWORLDPT1\DEBUG\VC141.IDB
D:\SEM 4\2019-HS2-COS30031-GAMESPROGRAMMING-H1\COS30031-101903197\03 - SPIKE - GRIDWORLD\GRIDWORLDPT1\GRIDWORLDPT1\DEBUG\GRIDWORLDPT1.PCH.CODEANALYSISAST
D:\SEM 4\2019-HS2-COS30031-GAMESPROGRAMMING-H1\COS30031-101903197\03 - SPIKE - GRIDWORLD\GRIDWORLDPT1\GRIDWORLDPT1\DEBUG\PCH.NATIVECODEANALYSIS.XML
D:\SEM 4\2019-HS2-COS30031-GAMESPROGRAMMING-H1\COS30031-101903197\03 - SPIKE - GRIDWORLD\GRIDWORLDPT1\GRIDWORLDPT1\DEBUG\PCH.OBJ
^D:\SEM 4\2019-HS2-COS30031-GAMESPROGRAMMING-H1\COS30031-101903197\03 - SPIKE - GRIDWORLD\GRIDWORLDPT1\GRIDWORLDPT1\GRIDWORLDPT1.CPP
D:\SEM 4\2019-HS2-COS30031-GAMESPROGRAMMING-H1\COS30031-101903197\03 - SPIKE - GRIDWORLD\GRIDWORLDPT1\GRIDWORLDPT1\DEBUG\VC141.PDB
D:\SEM 4\2019-HS2-COS30031-GAMESPROGRAMMING-H1\COS30031-101903197\03 - SPIKE - GRIDWORLD\GRIDWORLDPT1\GRIDWORLDPT1\DEBUG\VC141.IDB
D:\SEM 4\2019-HS2-COS30031-GAMESPROGRAMMING-H1\COS30031-101903197\03 - SPIKE - GRIDWORLD\GRIDWORLDPT1\GRIDWORLDPT1\DEBUG\GRIDWORLDPT1.NATIVECODEANALYSIS.XML
D:\SEM 4\2019-HS2-COS30031-GAMESPROGRAMMING-H1\COS30031-101903197\03 - SPIKE - GRIDWORLD\GRIDWORLDPT1\GRIDWORLDPT1\DEBUG\GRIDWORLDPT1.OBJ
