^D:\SEM 4\2019-HS2-COS30031-GAMESPROGRAMMING-H1\COS30031-101903197\09 - SPIKE - GAME STATE MANAGEMENT\ZORKISHGAME\ZORKISHGAME\PCH.CPP
D:\SEM 4\2019-HS2-COS30031-GAMESPROGRAMMING-H1\COS30031-101903197\09 - SPIKE - GAME STATE MANAGEMENT\ZORKISHGAME\ZORKISHGAME\DEBUG\ZORKISHGAME.PCH
D:\SEM 4\2019-HS2-COS30031-GAMESPROGRAMMING-H1\COS30031-101903197\09 - SPIKE - GAME STATE MANAGEMENT\ZORKISHGAME\ZORKISHGAME\DEBUG\VC141.PDB
D:\SEM 4\2019-HS2-COS30031-GAMESPROGRAMMING-H1\COS30031-101903197\09 - SPIKE - GAME STATE MANAGEMENT\ZORKISHGAME\ZORKISHGAME\DEBUG\VC141.IDB
D:\SEM 4\2019-HS2-COS30031-GAMESPROGRAMMING-H1\COS30031-101903197\09 - SPIKE - GAME STATE MANAGEMENT\ZORKISHGAME\ZORKISHGAME\DEBUG\PCH.OBJ
^D:\SEM 4\2019-HS2-COS30031-GAMESPROGRAMMING-H1\COS30031-101903197\09 - SPIKE - GAME STATE MANAGEMENT\ZORKISHGAME\ZORKISHGAME\ABOUT.CPP|D:\SEM 4\2019-HS2-COS30031-GAMESPROGRAMMING-H1\COS30031-101903197\09 - SPIKE - GAME STATE MANAGEMENT\ZORKISHGAME\ZORKISHGAME\MAINMENU.CPP|D:\SEM 4\2019-HS2-COS30031-GAMESPROGRAMMING-H1\COS30031-101903197\09 - SPIKE - GAME STATE MANAGEMENT\ZORKISHGAME\ZORKISHGAME\STATEMANAGER.CPP|D:\SEM 4\2019-HS2-COS30031-GAMESPROGRAMMING-H1\COS30031-101903197\09 - SPIKE - GAME STATE MANAGEMENT\ZORKISHGAME\ZORKISHGAME\ZORKISHGAME.CPP
D:\SEM 4\2019-HS2-COS30031-GAMESPROGRAMMING-H1\COS30031-101903197\09 - SPIKE - GAME STATE MANAGEMENT\ZORKISHGAME\ZORKISHGAME\DEBUG\VC141.PDB
D:\SEM 4\2019-HS2-COS30031-GAMESPROGRAMMING-H1\COS30031-101903197\09 - SPIKE - GAME STATE MANAGEMENT\ZORKISHGAME\ZORKISHGAME\DEBUG\VC141.IDB
D:\SEM 4\2019-HS2-COS30031-GAMESPROGRAMMING-H1\COS30031-101903197\09 - SPIKE - GAME STATE MANAGEMENT\ZORKISHGAME\ZORKISHGAME\DEBUG\ZORKISHGAME.OBJ
D:\SEM 4\2019-HS2-COS30031-GAMESPROGRAMMING-H1\COS30031-101903197\09 - SPIKE - GAME STATE MANAGEMENT\ZORKISHGAME\ZORKISHGAME\DEBUG\STATEMANAGER.OBJ
D:\SEM 4\2019-HS2-COS30031-GAMESPROGRAMMING-H1\COS30031-101903197\09 - SPIKE - GAME STATE MANAGEMENT\ZORKISHGAME\ZORKISHGAME\DEBUG\MAINMENU.OBJ
^D:\SEM 4\2019-HS2-COS30031-GAMESPROGRAMMING-H1\COS30031-101903197\09 - SPIKE - GAME STATE MANAGEMENT\ZORKISHGAME\ZORKISHGAME\MAINMENU.CPP
D:\SEM 4\2019-HS2-COS30031-GAMESPROGRAMMING-H1\COS30031-101903197\09 - SPIKE - GAME STATE MANAGEMENT\ZORKISHGAME\ZORKISHGAME\DEBUG\MAINMENU.OBJ
^D:\SEM 4\2019-HS2-COS30031-GAMESPROGRAMMING-H1\COS30031-101903197\09 - SPIKE - GAME STATE MANAGEMENT\ZORKISHGAME\ZORKISHGAME\ZORKISHGAME.CPP
D:\SEM 4\2019-HS2-COS30031-GAMESPROGRAMMING-H1\COS30031-101903197\09 - SPIKE - GAME STATE MANAGEMENT\ZORKISHGAME\ZORKISHGAME\DEBUG\ZORKISHGAME.OBJ
^D:\SEM 4\2019-HS2-COS30031-GAMESPROGRAMMING-H1\COS30031-101903197\09 - SPIKE - GAME STATE MANAGEMENT\ZORKISHGAME\ZORKISHGAME\ABOUT.CPP|D:\SEM 4\2019-HS2-COS30031-GAMESPROGRAMMING-H1\COS30031-101903197\09 - SPIKE - GAME STATE MANAGEMENT\ZORKISHGAME\ZORKISHGAME\STATEMANAGER.CPP
D:\SEM 4\2019-HS2-COS30031-GAMESPROGRAMMING-H1\COS30031-101903197\09 - SPIKE - GAME STATE MANAGEMENT\ZORKISHGAME\ZORKISHGAME\DEBUG\VC141.PDB
D:\SEM 4\2019-HS2-COS30031-GAMESPROGRAMMING-H1\COS30031-101903197\09 - SPIKE - GAME STATE MANAGEMENT\ZORKISHGAME\ZORKISHGAME\DEBUG\VC141.IDB
D:\SEM 4\2019-HS2-COS30031-GAMESPROGRAMMING-H1\COS30031-101903197\09 - SPIKE - GAME STATE MANAGEMENT\ZORKISHGAME\ZORKISHGAME\DEBUG\STATEMANAGER.OBJ
^D:\SEM 4\2019-HS2-COS30031-GAMESPROGRAMMING-H1\COS30031-101903197\09 - SPIKE - GAME STATE MANAGEMENT\ZORKISHGAME\ZORKISHGAME\ABOUT.CPP
D:\SEM 4\2019-HS2-COS30031-GAMESPROGRAMMING-H1\COS30031-101903197\09 - SPIKE - GAME STATE MANAGEMENT\ZORKISHGAME\ZORKISHGAME\DEBUG\VC141.PDB
D:\SEM 4\2019-HS2-COS30031-GAMESPROGRAMMING-H1\COS30031-101903197\09 - SPIKE - GAME STATE MANAGEMENT\ZORKISHGAME\ZORKISHGAME\DEBUG\VC141.IDB
D:\SEM 4\2019-HS2-COS30031-GAMESPROGRAMMING-H1\COS30031-101903197\09 - SPIKE - GAME STATE MANAGEMENT\ZORKISHGAME\ZORKISHGAME\DEBUG\ABOUT.OBJ
^D:\SEM 4\2019-HS2-COS30031-GAMESPROGRAMMING-H1\COS30031-101903197\09 - SPIKE - GAME STATE MANAGEMENT\ZORKISHGAME\ZORKISHGAME\HELP.CPP|D:\SEM 4\2019-HS2-COS30031-GAMESPROGRAMMING-H1\COS30031-101903197\09 - SPIKE - GAME STATE MANAGEMENT\ZORKISHGAME\ZORKISHGAME\STATEMANAGER.CPP
D:\SEM 4\2019-HS2-COS30031-GAMESPROGRAMMING-H1\COS30031-101903197\09 - SPIKE - GAME STATE MANAGEMENT\ZORKISHGAME\ZORKISHGAME\DEBUG\VC141.PDB
D:\SEM 4\2019-HS2-COS30031-GAMESPROGRAMMING-H1\COS30031-101903197\09 - SPIKE - GAME STATE MANAGEMENT\ZORKISHGAME\ZORKISHGAME\DEBUG\VC141.IDB
D:\SEM 4\2019-HS2-COS30031-GAMESPROGRAMMING-H1\COS30031-101903197\09 - SPIKE - GAME STATE MANAGEMENT\ZORKISHGAME\ZORKISHGAME\DEBUG\STATEMANAGER.OBJ
D:\SEM 4\2019-HS2-COS30031-GAMESPROGRAMMING-H1\COS30031-101903197\09 - SPIKE - GAME STATE MANAGEMENT\ZORKISHGAME\ZORKISHGAME\DEBUG\HELP.OBJ
^D:\SEM 4\2019-HS2-COS30031-GAMESPROGRAMMING-H1\COS30031-101903197\09 - SPIKE - GAME STATE MANAGEMENT\ZORKISHGAME\ZORKISHGAME\HELP.CPP|D:\SEM 4\2019-HS2-COS30031-GAMESPROGRAMMING-H1\COS30031-101903197\09 - SPIKE - GAME STATE MANAGEMENT\ZORKISHGAME\ZORKISHGAME\SELECTADVENTURE.CPP|D:\SEM 4\2019-HS2-COS30031-GAMESPROGRAMMING-H1\COS30031-101903197\09 - SPIKE - GAME STATE MANAGEMENT\ZORKISHGAME\ZORKISHGAME\STATEMANAGER.CPP
D:\SEM 4\2019-HS2-COS30031-GAMESPROGRAMMING-H1\COS30031-101903197\09 - SPIKE - GAME STATE MANAGEMENT\ZORKISHGAME\ZORKISHGAME\DEBUG\VC141.PDB
D:\SEM 4\2019-HS2-COS30031-GAMESPROGRAMMING-H1\COS30031-101903197\09 - SPIKE - GAME STATE MANAGEMENT\ZORKISHGAME\ZORKISHGAME\DEBUG\VC141.IDB
D:\SEM 4\2019-HS2-COS30031-GAMESPROGRAMMING-H1\COS30031-101903197\09 - SPIKE - GAME STATE MANAGEMENT\ZORKISHGAME\ZORKISHGAME\DEBUG\STATEMANAGER.OBJ
D:\SEM 4\2019-HS2-COS30031-GAMESPROGRAMMING-H1\COS30031-101903197\09 - SPIKE - GAME STATE MANAGEMENT\ZORKISHGAME\ZORKISHGAME\DEBUG\SELECTADVENTURE.OBJ
D:\SEM 4\2019-HS2-COS30031-GAMESPROGRAMMING-H1\COS30031-101903197\09 - SPIKE - GAME STATE MANAGEMENT\ZORKISHGAME\ZORKISHGAME\DEBUG\HELP.OBJ
^D:\SEM 4\2019-HS2-COS30031-GAMESPROGRAMMING-H1\COS30031-101903197\09 - SPIKE - GAME STATE MANAGEMENT\ZORKISHGAME\ZORKISHGAME\GAMEPLAY.CPP|D:\SEM 4\2019-HS2-COS30031-GAMESPROGRAMMING-H1\COS30031-101903197\09 - SPIKE - GAME STATE MANAGEMENT\ZORKISHGAME\ZORKISHGAME\HALLOFFAME.CPP|D:\SEM 4\2019-HS2-COS30031-GAMESPROGRAMMING-H1\COS30031-101903197\09 - SPIKE - GAME STATE MANAGEMENT\ZORKISHGAME\ZORKISHGAME\NEWHIGHSCORE.CPP|D:\SEM 4\2019-HS2-COS30031-GAMESPROGRAMMING-H1\COS30031-101903197\09 - SPIKE - GAME STATE MANAGEMENT\ZORKISHGAME\ZORKISHGAME\SELECTADVENTURE.CPP|D:\SEM 4\2019-HS2-COS30031-GAMESPROGRAMMING-H1\COS30031-101903197\09 - SPIKE - GAME STATE MANAGEMENT\ZORKISHGAME\ZORKISHGAME\STATEMANAGER.CPP
D:\SEM 4\2019-HS2-COS30031-GAMESPROGRAMMING-H1\COS30031-101903197\09 - SPIKE - GAME STATE MANAGEMENT\ZORKISHGAME\ZORKISHGAME\DEBUG\VC141.PDB
D:\SEM 4\2019-HS2-COS30031-GAMESPROGRAMMING-H1\COS30031-101903197\09 - SPIKE - GAME STATE MANAGEMENT\ZORKISHGAME\ZORKISHGAME\DEBUG\VC141.IDB
D:\SEM 4\2019-HS2-COS30031-GAMESPROGRAMMING-H1\COS30031-101903197\09 - SPIKE - GAME STATE MANAGEMENT\ZORKISHGAME\ZORKISHGAME\DEBUG\STATEMANAGER.OBJ
D:\SEM 4\2019-HS2-COS30031-GAMESPROGRAMMING-H1\COS30031-101903197\09 - SPIKE - GAME STATE MANAGEMENT\ZORKISHGAME\ZORKISHGAME\DEBUG\SELECTADVENTURE.OBJ
D:\SEM 4\2019-HS2-COS30031-GAMESPROGRAMMING-H1\COS30031-101903197\09 - SPIKE - GAME STATE MANAGEMENT\ZORKISHGAME\ZORKISHGAME\DEBUG\NEWHIGHSCORE.OBJ
D:\SEM 4\2019-HS2-COS30031-GAMESPROGRAMMING-H1\COS30031-101903197\09 - SPIKE - GAME STATE MANAGEMENT\ZORKISHGAME\ZORKISHGAME\DEBUG\HALLOFFAME.OBJ
D:\SEM 4\2019-HS2-COS30031-GAMESPROGRAMMING-H1\COS30031-101903197\09 - SPIKE - GAME STATE MANAGEMENT\ZORKISHGAME\ZORKISHGAME\DEBUG\GAMEPLAY.OBJ
^D:\SEM 4\2019-HS2-COS30031-GAMESPROGRAMMING-H1\COS30031-101903197\09 - SPIKE - GAME STATE MANAGEMENT\ZORKISHGAME\ZORKISHGAME\HALLOFFAME.CPP
D:\SEM 4\2019-HS2-COS30031-GAMESPROGRAMMING-H1\COS30031-101903197\09 - SPIKE - GAME STATE MANAGEMENT\ZORKISHGAME\ZORKISHGAME\DEBUG\VC141.PDB
^D:\SEM 4\2019-HS2-COS30031-GAMESPROGRAMMING-H1\COS30031-101903197\09 - SPIKE - GAME STATE MANAGEMENT\ZORKISHGAME\ZORKISHGAME\NEWHIGHSCORE.CPP
D:\SEM 4\2019-HS2-COS30031-GAMESPROGRAMMING-H1\COS30031-101903197\09 - SPIKE - GAME STATE MANAGEMENT\ZORKISHGAME\ZORKISHGAME\DEBUG\VC141.PDB
^D:\SEM 4\2019-HS2-COS30031-GAMESPROGRAMMING-H1\COS30031-101903197\09 - SPIKE - GAME STATE MANAGEMENT\ZORKISHGAME\ZORKISHGAME\SELECTADVENTURE.CPP
D:\SEM 4\2019-HS2-COS30031-GAMESPROGRAMMING-H1\COS30031-101903197\09 - SPIKE - GAME STATE MANAGEMENT\ZORKISHGAME\ZORKISHGAME\DEBUG\VC141.PDB
^D:\SEM 4\2019-HS2-COS30031-GAMESPROGRAMMING-H1\COS30031-101903197\09 - SPIKE - GAME STATE MANAGEMENT\ZORKISHGAME\ZORKISHGAME\QUIT.CPP|D:\SEM 4\2019-HS2-COS30031-GAMESPROGRAMMING-H1\COS30031-101903197\09 - SPIKE - GAME STATE MANAGEMENT\ZORKISHGAME\ZORKISHGAME\STATEMANAGER.CPP
D:\SEM 4\2019-HS2-COS30031-GAMESPROGRAMMING-H1\COS30031-101903197\09 - SPIKE - GAME STATE MANAGEMENT\ZORKISHGAME\ZORKISHGAME\DEBUG\VC141.PDB
D:\SEM 4\2019-HS2-COS30031-GAMESPROGRAMMING-H1\COS30031-101903197\09 - SPIKE - GAME STATE MANAGEMENT\ZORKISHGAME\ZORKISHGAME\DEBUG\VC141.IDB
D:\SEM 4\2019-HS2-COS30031-GAMESPROGRAMMING-H1\COS30031-101903197\09 - SPIKE - GAME STATE MANAGEMENT\ZORKISHGAME\ZORKISHGAME\DEBUG\STATEMANAGER.OBJ
D:\SEM 4\2019-HS2-COS30031-GAMESPROGRAMMING-H1\COS30031-101903197\09 - SPIKE - GAME STATE MANAGEMENT\ZORKISHGAME\ZORKISHGAME\DEBUG\QUIT.OBJ
^D:\SEM 4\2019-HS2-COS30031-GAMESPROGRAMMING-H1\COS30031-101903197\09 - SPIKE - GAME STATE MANAGEMENT\ZORKISHGAME\ZORKISHGAME\STATEMANAGER.CPP
D:\SEM 4\2019-HS2-COS30031-GAMESPROGRAMMING-H1\COS30031-101903197\09 - SPIKE - GAME STATE MANAGEMENT\ZORKISHGAME\ZORKISHGAME\DEBUG\VC141.PDB
D:\SEM 4\2019-HS2-COS30031-GAMESPROGRAMMING-H1\COS30031-101903197\09 - SPIKE - GAME STATE MANAGEMENT\ZORKISHGAME\ZORKISHGAME\DEBUG\VC141.IDB
D:\SEM 4\2019-HS2-COS30031-GAMESPROGRAMMING-H1\COS30031-101903197\09 - SPIKE - GAME STATE MANAGEMENT\ZORKISHGAME\ZORKISHGAME\DEBUG\STATEMANAGER.OBJ
^D:\SEM 4\2019-HS2-COS30031-GAMESPROGRAMMING-H1\COS30031-101903197\09 - SPIKE - GAME STATE MANAGEMENT\ZORKISHGAME\ZORKISHGAME\QUIT.CPP
D:\SEM 4\2019-HS2-COS30031-GAMESPROGRAMMING-H1\COS30031-101903197\09 - SPIKE - GAME STATE MANAGEMENT\ZORKISHGAME\ZORKISHGAME\DEBUG\VC141.PDB
D:\SEM 4\2019-HS2-COS30031-GAMESPROGRAMMING-H1\COS30031-101903197\09 - SPIKE - GAME STATE MANAGEMENT\ZORKISHGAME\ZORKISHGAME\DEBUG\VC141.IDB
D:\SEM 4\2019-HS2-COS30031-GAMESPROGRAMMING-H1\COS30031-101903197\09 - SPIKE - GAME STATE MANAGEMENT\ZORKISHGAME\ZORKISHGAME\DEBUG\QUIT.OBJ
^D:\SEM 4\2019-HS2-COS30031-GAMESPROGRAMMING-H1\COS30031-101903197\09 - SPIKE - GAME STATE MANAGEMENT\ZORKISHGAME\ZORKISHGAME\HELP.CPP
D:\SEM 4\2019-HS2-COS30031-GAMESPROGRAMMING-H1\COS30031-101903197\09 - SPIKE - GAME STATE MANAGEMENT\ZORKISHGAME\ZORKISHGAME\DEBUG\VC141.PDB
D:\SEM 4\2019-HS2-COS30031-GAMESPROGRAMMING-H1\COS30031-101903197\09 - SPIKE - GAME STATE MANAGEMENT\ZORKISHGAME\ZORKISHGAME\DEBUG\VC141.IDB
D:\SEM 4\2019-HS2-COS30031-GAMESPROGRAMMING-H1\COS30031-101903197\09 - SPIKE - GAME STATE MANAGEMENT\ZORKISHGAME\ZORKISHGAME\DEBUG\HELP.OBJ
^D:\SEM 4\2019-HS2-COS30031-GAMESPROGRAMMING-H1\COS30031-101903197\09 - SPIKE - GAME STATE MANAGEMENT\ZORKISHGAME\ZORKISHGAME\GAMEPLAY.CPP
D:\SEM 4\2019-HS2-COS30031-GAMESPROGRAMMING-H1\COS30031-101903197\09 - SPIKE - GAME STATE MANAGEMENT\ZORKISHGAME\ZORKISHGAME\DEBUG\VC141.PDB
D:\SEM 4\2019-HS2-COS30031-GAMESPROGRAMMING-H1\COS30031-101903197\09 - SPIKE - GAME STATE MANAGEMENT\ZORKISHGAME\ZORKISHGAME\DEBUG\VC141.IDB
D:\SEM 4\2019-HS2-COS30031-GAMESPROGRAMMING-H1\COS30031-101903197\09 - SPIKE - GAME STATE MANAGEMENT\ZORKISHGAME\ZORKISHGAME\DEBUG\GAMEPLAY.OBJ
