^D:\SEM 4\2019-HS2-COS30031-GAMESPROGRAMMING-H1\COS30031-101903197\08 - SPIKE - PERFORMANCE MEASUREMENT\TESTS\TESTS\RELEASE\PCH.OBJ|D:\SEM 4\2019-HS2-COS30031-GAMESPROGRAMMING-H1\COS30031-101903197\08 - SPIKE - PERFORMANCE MEASUREMENT\TESTS\TESTS\RELEASE\SAMPLE1.OBJ
D:\SEM 4\2019-HS2-COS30031-GAMESPROGRAMMING-H1\COS30031-101903197\08 - SPIKE - PERFORMANCE MEASUREMENT\TESTS\RELEASE\TESTS.EXE
D:\SEM 4\2019-HS2-COS30031-GAMESPROGRAMMING-H1\COS30031-101903197\08 - SPIKE - PERFORMANCE MEASUREMENT\TESTS\RELEASE\TESTS.PDB
