^D:\Sem 4\2019-HS2-COS30031-GamesProgramming-H1\COS30031-101903197\08 - Spike - Performance Measurement\tests\tests\tests.vcxproj
D:\Sem 4\2019-HS2-COS30031-GamesProgramming-H1\COS30031-101903197\08 - Spike - Performance Measurement\tests\Release\tests.ipdb
D:\Sem 4\2019-HS2-COS30031-GamesProgramming-H1\COS30031-101903197\08 - Spike - Performance Measurement\tests\Release\tests.iobj
^D:\Sem 4\2019-HS2-COS30031-GamesProgramming-H1\COS30031-101903197\08 - Spike - Performance Measurement\tests\tests\tests.vcxproj
D:\Sem 4\2019-HS2-COS30031-GamesProgramming-H1\COS30031-101903197\08 - Spike - Performance Measurement\tests\Release\tests.ipdb
D:\Sem 4\2019-HS2-COS30031-GamesProgramming-H1\COS30031-101903197\08 - Spike - Performance Measurement\tests\Release\tests.iobj
