^D:\SEM 4\2019-HS2-COS30031-GAMESPROGRAMMING-H1\COS30031-101903197\26 - SPIKE - COLLISIONS\COLLISIONDETECTION\COLLISIONDETECTION\PCH.CPP
D:\SEM 4\2019-HS2-COS30031-GAMESPROGRAMMING-H1\COS30031-101903197\26 - SPIKE - COLLISIONS\COLLISIONDETECTION\COLLISIONDETECTION\RELEASE\COLLISIONDETECTION.PCH
D:\SEM 4\2019-HS2-COS30031-GAMESPROGRAMMING-H1\COS30031-101903197\26 - SPIKE - COLLISIONS\COLLISIONDETECTION\COLLISIONDETECTION\RELEASE\VC141.PDB
D:\SEM 4\2019-HS2-COS30031-GAMESPROGRAMMING-H1\COS30031-101903197\26 - SPIKE - COLLISIONS\COLLISIONDETECTION\COLLISIONDETECTION\RELEASE\PCH.OBJ
